{
    "schema_version":"1.0",
    "criteria":[
        {
            "tguid":"default.Dhrystone.Score",
            "reference":{
                "value":0,
                "operator":"gt"
            }
        },
        {
            "tguid":"default.Dhrystone",
            "min_pass":1
        }
    ]
}
