{
    "testPlanName": "testplan_sata",
    "tests": [
        {
            "testName": "Benchmark.fio",
            "spec": "sata"
        },
        {
            "testName": "Benchmark.bonnie",
            "spec":    "sata"
        },
        {
            "testName": "Benchmark.IOzone",
            "spec":    "sata"
        },
        {
            "testName": "Benchmark.ffsb",
            "spec":    "sata"
        },
        {
            "testName": "Benchmark.tiobench",
            "spec":    "sata"
        },
        {
            "testName": "Functional.aiostress",
            "spec":    "sata"
        },
        {
            "testName": "Functional.synctest",
            "spec":    "sata"
        },
        {
            "testName": "Benchmark.Interbench",
            "spec":    "sata"
        },
        {
            "testName": "Benchmark.dbench4",
            "spec":    "sata"
        }

    ]
}

                      
