{
    "test_sets":[
        {
            "name":"Main",
            "test_cases":[
                {
                    "name":"create",
                    "measurements":[
                        {
                            "name":"Transactions",
                            "unit":"Num Transactions"
                        },
                        {
                            "name":"TPS",
                            "unit":"Transactions/s"
                        },
                        {
                            "name":"TPercent",
                            "unit":"%"
                        },
                        {
                            "name":"OpWeight",
                            "unit":"%"
                        }
                    ]
                },
                {
                    "name":"readall",
                    "measurements":[
                        {
                            "name":"Transactions",
                            "unit":"Num Transactions"
                        },
                        {
                            "name":"TPS",
                            "unit":"Transactions/s"
                        },
                        {
                            "name":"TPercent",
                            "unit":"%"
                        },
                        {
                            "name":"OpWeight",
                            "unit":"%"
                        }
                    ]
                },
                {
                    "name":"append",
                    "measurements":[
                        {
                            "name":"Transactions",
                            "unit":"Num Transactions"
                        },
                        {
                            "name":"TPS",
                            "unit":"Transactions/s"
                        },
                        {
                            "name":"TPercent",
                            "unit":"%"
                        },
                        {
                            "name":"OpWeight",
                            "unit":"%"
                        }
                    ]
                },
                {
                    "name":"stat",
                    "measurements":[
                        {
                            "name":"Transactions",
                            "unit":"Num Transactions"
                        },
                        {
                            "name":"TPS",
                            "unit":"Transactions/s"
                        },
                        {
                            "name":"TPercent",
                            "unit":"%"
                        },
                        {
                            "name":"OpWeight",
                            "unit":"%"
                        }
                    ]
                },
                {
                    "name":"delete",
                    "measurements":[
                        {
                            "name":"Transactions",
                            "unit":"Num Transactions"
                        },
                        {
                            "name":"TPS",
                            "unit":"Transactions/s"
                        },
                        {
                            "name":"TPercent",
                            "unit":"%"
                        },
                        {
                            "name":"OpWeight",
                            "unit":"%"
                        }
                    ]
                },
                {
                    "name":"writeall",
                    "measurements":[
                        {
                            "name":"Transactions",
                            "unit":"Num Transactions"
                        },
                        {
                            "name":"TPS",
                            "unit":"Transactions/s"
                        },
                        {
                            "name":"TPercent",
                            "unit":"%"
                        },
                        {
                            "name":"OpWeight",
                            "unit":"%"
                        }
                    ]
                },
                {
                    "name":"writeall_fsync",
                    "measurements":[
                        {
                            "name":"Transactions",
                            "unit":"Num Transactions"
                        },
                        {
                            "name":"TPS",
                            "unit":"Transactions/s"
                        },
                        {
                            "name":"TPercent",
                            "unit":"%"
                        },
                        {
                            "name":"OpWeight",
                            "unit":"%"
                        }
                    ]
                },
                {
                    "name":"open_close",
                    "measurements":[
                        {
                            "name":"Transactions",
                            "unit":"Num Transactions"
                        },
                        {
                            "name":"TPS",
                            "unit":"Transactions/s"
                        },
                        {
                            "name":"TPercent",
                            "unit":"%"
                        },
                        {
                            "name":"OpWeight",
                            "unit":"%"
                        }
                    ]
                },
                {
                    "name":"create_fsync",
                    "measurements":[
                        {
                            "name":"Transactions",
                            "unit":"Num Transactions"
                        },
                        {
                            "name":"TPS",
                            "unit":"Transactions/s"
                        },
                        {
                            "name":"TPercent",
                            "unit":"%"
                        },
                        {
                            "name":"OpWeight",
                            "unit":"%"
                        }
                    ]
                },
                {
                    "name":"append_fsync",
                    "measurements":[
                        {
                            "name":"Transactions",
                            "unit":"Num Transactions"
                        },
                        {
                            "name":"TPS",
                            "unit":"Transactions/s"
                        },
                        {
                            "name":"TPercent",
                            "unit":"%"
                        },
                        {
                            "name":"OpWeight",
                            "unit":"%"
                        }
                    ]
                }
            ]
        },
        {
            "name":"Throughput",
            "test_cases":[
                {
                    "name":"Read",
                    "measurements":[
                        {
                            "name":"Throughput",
                            "unit":"MB/Sec"
                        }
                    ]
                },
                {
                    "name":"Write",
                    "measurements":[
                        {
                            "name":"Throughput",
                            "unit":"MB/Sec"
                        }
                    ]
                }
            ]
        },
        {
            "name":"Syscall_latency",
            "test_cases":[
                {
                    "name":"open",
                    "measurements":[
                        {
                            "name":"Min",
                            "unit":"ms"
                        },
                        {
                            "name":"Avg",
                            "unit":"ms"
                        },
                        {
                            "name":"Max",
                            "unit":"ms"
                        }
                    ]
                },
                {
                    "name":"read",
                    "measurements":[
                        {
                            "name":"Min",
                            "unit":"ms"
                        },
                        {
                            "name":"Avg",
                            "unit":"ms"
                        },
                        {
                            "name":"Max",
                            "unit":"ms"
                        }
                    ]
                },
                {
                    "name":"write",
                    "measurements":[
                        {
                            "name":"Min",
                            "unit":"ms"
                        },
                        {
                            "name":"Avg",
                            "unit":"ms"
                        },
                        {
                            "name":"Max",
                            "unit":"ms"
                        }
                    ]
                },
                {
                    "name":"unlink",
                    "measurements":[
                        {
                            "name":"Min",
                            "unit":"ms"
                        },
                        {
                            "name":"Avg",
                            "unit":"ms"
                        },
                        {
                            "name":"Max",
                            "unit":"ms"
                        }
                    ]
                },
                {
                    "name":"close",
                    "measurements":[
                        {
                            "name":"Min",
                            "unit":"ms"
                        },
                        {
                            "name":"Avg",
                            "unit":"ms"
                        },
                        {
                            "name":"Max",
                            "unit":"ms"
                        }
                    ]
                },
                {
                    "name":"stat",
                    "measurements":[
                        {
                            "name":"Min",
                            "unit":"ms"
                        },
                        {
                            "name":"Avg",
                            "unit":"ms"
                        },
                        {
                            "name":"Max",
                            "unit":"ms"
                        }
                    ]
                }
            ]
        }
    ]
}
