{
    "test_sets":[
        {
            "name":"default",
            "test_cases":[
                {
                    "name":"Whetstone",
                    "measurements":[
                        {
                            "name":"Score",
                            "unit":"MIPS"
                        }
                    ]
                }
            ]
        }
    ]
}
